if (Meteor.isClient) {

    Template.searchKM.rendered = function() {
        refreshSessionVars();
    }


    Template.searchKM.helpers({
        student: function() {
            if (Session.get('grade') != '' && Session.get('subject') != '') {
                return StudentData.find({
                    "grade": parseInt(Session.get('grade')),
                    "subjects.English": {
                        $exists: true
                    }
                });
            }
        }
    })


    Template.searchKM.events({
        "change #grade": function() {
            var selectedGrade = document.getElementById("grade").value;
            document.getElementById("playlist").innerHTML = "";

            Session.set('selectedStudent', '');
            Session.set('selectedUnit', '');
            Session.set('selectedTopic', '');
            Session.set('selectedLesson', '');
            Session.set('selectedLessonName', '');

            Session.set('grade', selectedGrade);
            startVis();
        },
        "change #subject": function() {
            var selectedSubject = document.getElementById("subject").value;
            document.getElementById("playlist").innerHTML = "";

            Session.set('selectedStudent', '');
            Session.set('selectedUnit', '');
            Session.set('selectedTopic', '');
            Session.set('selectedLesson', '');
            Session.set('selectedLessonName', '');

            Session.set('subject', selectedSubject);
            startVis();
        },
        "click #callTempButton": function() {
            console.log('clicked');
            Meteor.call("callTemp");
        }
    })

    function startVis() {
        if (Session.get("grade") != "" && Session.get("subject") != "") {
            base = {
                "grade": parseInt(Session.get("grade")),
                "compare": "units",
                "subjects": {}
            };
            base["subjects"][Session.get("subject")] = {};
            baseHistory = [];
            displayPlotBox(base);
        }
    }



    function refreshSessionVars() {
        console.log('in function refreshSessionVars');
        Session.set('grade', '');
        Session.set('subject', '');
        Session.set('selectedStudent', '');
        Session.set('selectedLesson', '');
        Session.set('selectedUnit', '');
        Session.set('selectedTopic', '');
        Session.set('selectedLessonName', '');

        baseHistory = [];
        document.getElementById("displayUnit").innerHTML = "";
        document.getElementById("displayTopic").innerHTML = "";
        document.getElementById("displayLesson").innerHTML = "";
    }


    insertIntoKMLevels = function() {
        console.log('in function insertIntoKMLevels');

        KnowledgeMapsLevelsJSON = {};

        var KMLevels = {
            0: ['52f8decd-1dbf-4191-87c4-097e6b819bf2', '9e311e94-f36a-408f-af72-27e044835087', 'dda11ab2-f70f-4a49-b9bf-34a432318d02', '642f58a4-0d48-46bc-8221-8aafda1468a7', 'ffa7b369-050c-46e5-ba33-58c8c38c8417', '31a9eb72-009b-4ed5-bd3e-f980bc6ce95e', 'f4d1ad56-d2f2-45ed-bd42-7067c03462b1', '877b28f4-d266-42e7-9e83-5080bab2e063', 'cdb75bc5-e4cd-4e88-aa34-a9761e4dfb02', '36ab235d-d9e3-4af2-b346-144f99313eef', '6341a1e3-eba5-4c85-bb2f-4aa1b4354161', '3b117566-4508-42f7-924b-c46c947eb764', 'ca9059a2-de04-42c2-94d1-837ca0390799', '5fadf526-a79c-4d80-825b-083f556dc5ec', '3f9a680f-38a9-4b67-95c4-ea3915bb4ee7', 'cf2147f6-6a80-4adc-89c7-7052bebe37ff', '21ddeeb7-d956-4dc7-beb3-79d176dd8ec1', '8c7cbb8f-2b1b-474d-9eb8-bd6d943f4bdb', 'be13d5d9-3d42-415f-b7f8-6ca65e1d0d12', 'c9ae6ffc-a55c-4959-8071-e04cec4a85cb', '12df169f-9f0a-49e5-9186-4ac1658f3b6c', '22d46b72-2240-4b68-9751-934f10828cca', 'b6b7c6e0-23d7-4fa1-8c8b-7c008ea94843', '4ca7755a-ff63-40e4-a45b-fb2e47939702', 'e0904187-ddbc-445a-b72e-1cfa28327d80', '9cb63e1f-291d-4b34-a7f0-d9910857624e', '450f338a-491a-418b-b4d5-11505e0fede3', '6c2a4d52-2403-47b1-8a5c-05f00d5bb8c2', '2a9709f5-5f02-4369-aada-73b2c4da2571', 'f0fa0f4f-7440-405e-9bff-406ec4f32721', '454f3f61-1879-47a1-8235-df2602cd7960', '639d8a01-b213-48bb-a09f-8038d54384f1', '50a6d485-a628-46ca-b3d2-ad161822bafb', 'fb739202-bfbd-41e8-9708-f0ab591cd4d6', '98e96e5d-b3b6-4869-bb46-c520e1ebd0a7', '7e9fe3c7-a0e9-4e6b-95b0-4e789411f623', '9b0e7795-c738-44d2-a9e5-a4704b6df74f', 'd8b77ce4-1bb8-4d1c-b6f8-e63374af528c', '54759040-a054-4de8-891b-24a4e55d741f', '505e5942-0f61-4813-8ed7-67bf845a90af', '1483d25c-c1ae-44b3-acc0-1e9bbf44e56c', '9172d793-d8a9-46ad-94c6-b945c21e5b4d', '86f4a443-e8b8-49e8-9458-4c2a0cea6c17', 'a0d5a0b7-bdb2-4793-8d87-001ece2541f9', 'e86e04fb-df99-42d2-89b8-56a62c63ea70', 'b4b13483-34a4-4724-8efb-0a5f95fdc919', 'fcb7c31c-9126-4b6e-b882-55772ee5cad6', '09e0c19b-9b95-4440-9a1b-b48e15c63515', 'b2110bdb-2f1a-4367-b8ac-52d1362b3fad', '069027e3-3b0e-483c-a448-52bd08d68fb8', '39014136-a569-4541-b6ec-ace8ad818403', 'b112efb2-77d2-4091-8d2a-959a84243706', 'b36b2cae-e02b-444c-ad69-e5af5e3b1013', 'bb50bbad-486a-4222-9df5-149f3d3aced3', 'b6c32d01-f5f8-4718-8e22-5572a340c5b1', 'e95e09d5-baa9-455e-9dc6-deeb57822e3e', '66835336-0e26-4f11-8610-86b1b7801d87', '0b34f90e-5799-472a-a673-d58a52a38e88', '59e53fcd-b0e5-438d-9e89-9ace057b93ea', '393b0b08-a377-47e1-a5a3-93a067cbdda5', 'd73592d7-e241-4abe-a849-1508e264651c', '68ebb65b-ce0f-41c6-8b72-7a7a99efd15a', 'f6c61162-8e84-4265-bbb6-ffae1b035b05', '4c8ebf5c-41da-4ba3-b0b5-b09c3c199c86', '863abb72-0011-4263-b475-9dbdfbbb6903', 'f00c7cb5-6b2c-48b3-86b3-1dea00246a27', '49d420b3-7201-463e-90b4-74974b6e0329', 'e10f9ae7-917c-4241-9274-8b0d1ad3505b', 'adbea24e-b75a-466b-bdfe-60671d8540e3', '9a61e02b-4495-44ab-ae91-49a34859f332', 'bd180bce-2f63-4c4b-8490-1ffb81fa3b30', '7ca03ea1-5c14-4b02-87b6-880cd3ef36a7', '022380a2-8265-46bc-8ad1-f54cf118565c', 'a5313ea3-4027-4709-90b9-aaeb9302699d', 'd2e4224c-9315-4239-9ad9-d1b5b5dfe60e', 'f910f1c4-539a-46b5-92b6-68f350a4c025', '572f138a-b974-4bfc-8895-8139ec8b1b9d', '04e38014-d498-4bd6-8814-f2cae8316097', '6f0417d9-d065-495b-a8c8-b2858c7b46b8', '6a09ea78-d700-4704-b74b-ba7cd57b5470', 'd4638621-e647-486a-a6b8-dbeac00b19fa', '322f41e3-5413-442d-9f3c-09e18648cbac', '9329f7c1-dadf-409e-b4d2-146e0c49927f', '17e24eb2-e2e4-4b66-a769-4cbed314b333', '4f133ef2-b56e-4c92-bd76-29412ec58aba', '1e14f7c6-1a4e-4375-8a6e-584f749b8df9', 'e344f39b-59bb-498c-896d-2a1e6609c4e7', '3bc3d498-073e-444f-9359-8943b982c866', '4f1361f6-a92a-431b-9c82-71a05e6a61b1', 'f6ce5db6-fe43-435a-8a97-a38ef28b1c1a', '9d359d41-f18b-465b-a1ba-29cea262e8ef', '9ae5fda5-b5ac-4851-8e0a-32e9034047b5', 'dcdc32f8-e051-4adf-9156-d6013962e905', '8e9ac0a4-3c21-4d00-b69a-213e5dc808ea', 'ec77ec14-6967-45d3-9db1-aeb3ca3d7a61', '8e9a99ea-b616-4e66-8f58-1dd7a4448b65', '8a1169f8-7a68-49a8-a52a-f6d87fd41673', '6661d723-3084-4e54-af33-78b3b64367f8', '3d363c34-08d5-4c7f-91cf-b84fc0fad8cc', '9f36a579-d12e-4e00-95ca-cdecbb53d999', 'c548bd36-9473-473d-8b36-74e585ba4672', '7f37a0b2-63ba-4fc7-9cf7-2578e75d4037', '575bb96c-7da2-43e0-94a3-9b7c3c7bb145', 'f4c48972-5d27-4d32-a3f0-6b14212f64f2', 'a782843b-49d6-46a2-b7bb-1c284ef6286d', 'abafdeab-f41a-4546-9d1c-02ba1ec7d376', '15bfc687-1984-460a-ba04-3a448cbfe436', 'b3f2c235-9f07-43c1-9279-b3983e116c4b', 'd304cc5c-336b-418a-aad9-468d7f50fc42', '2ebc2c80-df97-4371-a827-d5f5282cb98d', 'd35d45fe-3051-458c-9f13-92f0148695a8', '2c255b56-5c66-4f5e-a4f4-d0f90fbee159', '73017fff-45f9-491d-91f6-4a737a676e02', '5e7c05a2-f969-45f4-b5da-bdb3c64208d4'],
            1: ['cf2fce06-c175-45f4-9c09-d7fb4fdf6ac3', 'cad5d52e-4f3a-4a7d-a757-6333d8367c99', '7f32bfa4-6bbf-4b17-bbcf-91c32fb12ce6', '876ad289-03ea-45d9-8f56-ff07a880a402', '913a4d1b-3fc3-438c-aa33-22b763531845', '3f69460d-378c-4725-9e79-f63607a74648', '01d50a24-7b5c-4623-82f3-eaea5b4f186a', '2f4e4d6b-183f-4ca8-8dd2-b93555856b8d', '1ca79505-aceb-45f6-b1ac-abb2d444fb05', '552e1d19-56c5-492b-aa1d-66a28d256627', 'ac870ce3-e103-4b56-84cf-647b210b352f', '328d9a45-133c-40b9-88b5-2eb0f423c563', 'b938d73c-42fc-4d53-8725-d5868a2bd67f', 'ceb120af-0b17-4a7c-b247-435c638b99b6', '8c806023-8bfa-428e-95af-3a3080425ec1', 'c647815e-5c87-41c9-9aaa-30129b0dd6a1', '4639bb84-2432-4714-911e-3d8f3cdb2cef', 'fc681d65-ff6e-4eb1-933c-66802cfd60e9', 'd1d5ee4d-ebd1-4838-a1e9-3fc82e505d26', '947fdfe7-92ec-4b4e-8a5d-77e98e04f932', 'a3b33b60-e0b2-4028-8bda-835101e256ef', '46766625-5694-4d7f-a405-1c84fa34ba46', '9bbe2c57-0eac-45dc-9022-4d4adbcc468a', '55da366a-d042-41a7-8645-3f9edda59a9f', '2b6adab8-a079-4576-b149-b5b061c10e93', '21e541eb-625e-49d3-98f2-a90a8bb53862', '466c5495-4b1b-4fe8-a75f-e3fecc03e030', '717440a7-2c03-423f-84f4-326153715de9', 'd85aaab8-b2e8-4f0c-aa0a-56ac49265878', '3c7c3f43-095e-4006-b92d-fd16ffee0a80', '74a0a0da-f29a-487e-8034-d1f4856d037c', '59345319-714b-4b96-a4cb-9d3a06ce8f61'],
            2: ['201554db-bce9-4d27-9a49-a9e60e500f05', 'b9a5d552-dd8a-41c0-a272-4f2572cfe722', '33aec5ae-c131-4896-8ebc-30fe0b7f712d', 'be60aee7-5d3e-4617-8468-f91d31d7328e', 'f2f8ac96-c624-4322-8a52-10fb5234c759', 'c9cc958a-a056-4aa9-94cc-69ab8ad4d565', '76b39594-a4ba-4feb-87bd-a4907528b4fb', 'b3deb5ff-266c-4da4-ac3f-c5dc5cbefd24', '251e44dd-3ffd-4a61-afa8-24766ca5f1a7', 'd9780146-3852-40ca-aa23-c7ba7da6a8c0', '3e718284-61f1-4ca7-8afe-5f88cc92a9dd', 'd8a83b4f-87e2-4e95-9600-e7d79b4db24d', '4a555b92-bca6-44d4-a479-0f0909bf47a1', 'e9c1183e-b117-4b54-9439-bd764f8a3af3', '26c0d3e3-5e50-4202-9646-26ba58115b38'],
            3: ['13a2b14f-4898-46c0-bd37-4007775f3951', '6b6df739-3190-4a95-8187-2b5d8656cb83', '18685f40-858e-4c60-8d14-2f01fb2ddfb9', 'be4d68f8-a961-4e7c-851d-60db0028e189', '6ead5f27-f65b-4da3-9e03-4b4b80e05a4e', '8df26467-82a3-4d02-b34e-f1037d356cf5', '14ed8508-16bf-44b3-9376-c901cc68fa5f', '930662ec-c683-4781-99d9-fbd4f7228dd3', 'c9a4a956-94ed-47fd-bfbe-16c85a023e75', '303c83de-b5b5-496b-bd72-656cf64fbf27', 'cbd5cc4c-34f1-4760-bbbe-9266ebd981c6', 'a5ee9f07-f5e4-4109-b025-fcb2689820a6', '186b6569-c0ac-4d88-acc8-ab6984c591fd'],
            4: ['8edf5d4e-0ee4-48f5-bd9b-ca578bbd8aeb', '53b1d768-62a0-45ea-96a2-521e85df45b5', 'f7f0f213-b697-4732-bd26-96b3cc2ee76f', 'ce3741e8-c989-49fb-8167-9e34c990d007', '2c13977e-03f5-4f0c-9f78-d2669baed31f', 'a1c7f1e6-541e-4a16-826a-6e3405d4fcea', '64d9a9bb-667d-49f9-b3a2-007331f610e4', '56897da0-314a-4d54-8006-c8171de30375', 'cb5dfb92-b89b-4995-aca6-022b3d17298d', '6ad3b4a9-da74-41a5-9668-90d0ce9713cf', '9f47e0a5-e4e1-4cf1-ad3c-9cdd5a9ab2c4', '61781663-2acd-480f-a45c-3fa121bee311'],
            5: ['9d5f2b6e-0d84-4b24-85a5-8b7b6a18d42d', 'ca31c40a-221e-4c6a-bc8b-fdc5ae2a8ee0', '9fcf6c1d-e116-4c8f-9186-b1571ad50adf', 'bbb4b0f1-d0ff-495a-afcb-a8ef3d46efac', '8ae9f1e3-75e3-4a81-9ec2-11757aeddcf4', 'ee7be60e-76b7-4c20-a58c-c2ce92afb2ff', '5e440af6-7ba2-4cdb-b7c9-631617f7b923', '286ae2d9-6376-4882-866a-87d4c51172ae', '484e126b-e49d-45c5-bd2c-964eb7cc48b0', '7056c5cb-7e5a-4bd9-b046-5abdd9aeaed7', '9e6579ce-0140-43d2-92fd-8e0647d8103e', 'e89de50a-600e-41a7-83f8-3d8b8d0ce8f6', 'ddc9b5d2-6e29-48d8-8982-7791b3ce5d6e', '4e3cc881-b76c-4d2d-9fb4-0a0cb1b79609', '45fdf418-9b39-45bb-b868-d700f1c8771d', '37833cac-ba00-4fbe-bc2a-dec951e0dbff', '23d98ea6-7744-45cb-bc44-fd0b38bef467', '306c370b-64b5-4396-b676-cda11dcdaac6', '87555602-20d6-4649-ba8f-1b09a77bccc9', '5efe5a7f-77ce-46b6-8193-66d4f72e6f80', '54264dd0-1ce4-4cf3-9761-2950051570e0', 'a5a1c753-7618-4877-a9fb-fbe716b1a659', '2aafcf8f-ed27-4028-be54-e48050f02378'],
            6: ['2c25468a-b323-42fe-9c03-e386e038bb6b', '1de81d8e-9bb2-4b84-9097-21cedcc529c4', '59993a6e-6208-4673-8e04-aa0f3ce8b59d', '9267ba65-afa2-4595-b6ef-8aff40ebb518', 'edf060ac-8218-40b1-b0c9-7be8a5cabb5c', '85512e54-4098-4e55-aeb9-23fcee2a0b2b', '0c846c88-d867-4890-9f1b-b10f7c5214af', 'c66963b9-26d4-4c54-8d57-c2e6f578a8f8', '3cbfd1f3-d39f-4dcd-8d3b-3ccbbfe1c844', 'd5707b8e-841e-46f7-9c7f-2401b16ef0ba', '9adabada-601a-4a94-b2f8-19ed41061ccb', '047142c3-5cd0-4a71-9a65-dac0098feb8b', '21e40b5b-6d6f-4f9f-92ee-70abac117d8b', 'fafeb176-a5de-471e-a6dc-36bc3df1b7df', '3a0752bd-44b1-4be4-9e90-b72f2be79ce9', '63cccd23-440a-465f-8805-a137eb867737', '208b4200-b48a-4147-b403-97bb694d7491', '88dc5899-c6cc-4572-843c-21228e0011ca', '5162e41c-e16a-4623-96d8-a04c56899ff1'],
            7: ['be0bb9e3-0d4a-4a13-8411-ff7ea560d05f', '91daddcd-e662-4369-8bed-8f615f924638', 'f7de336c-edc9-4418-a2df-8404d7b2c681', 'eeed13ef-927f-4a5e-b048-a92b7e972da8', '6aa1d95d-c6a0-4f48-a290-12ced36a0dd9', '4e87beeb-7161-4923-acb5-c3195eacfb11', '696bc7c2-5ccc-43f6-acd7-7b1ac9e64404', 'dae78d9e-5aa6-4f3d-a4d5-ea0ea90ac82a', '74e26f9f-97e3-49d1-8b85-21e06980e553', 'b033ee53-4736-4744-821a-ef2f5319951a', '80991207-cc1f-470f-ad7e-71dbc903bc28', '8366cf8b-7dc1-4c3c-924f-36eb25c2d3e5'],
            8: ['385e9ba5-8052-4f10-b955-3b02e20ae858', '53b738e8-1b09-416c-a087-74826ca5c2b8', '9d1a28d9-c4e1-4f4e-9d07-b936bdc08114', '1ea80079-1e21-4846-8a17-b29a36e1bea0', '19f0260e-dc61-461f-a106-ec11823218ff', '61562af5-ced0-4fed-bcc7-bd0f654db7b6', 'ff894695-842b-4932-88ee-4509f779d4bc', 'b49e2fba-ba9f-4c36-83e8-4f7ddb3403b8', 'ce6b62d7-60a4-45d0-bc72-b651ea9ebeff'],
            9: ['903b59b1-98d3-4f66-8133-f247e6e3a8d1', '902c1cf0-82b9-483c-bdbd-84f750c05d90', 'e237d320-f3c5-4156-9d6c-3cc2ab6efdbc', '2a6e95d0-115f-46a9-9476-3cf839d9fb68', 'def82224-dd79-459e-aa13-b6d6f74329b6', 'bd8fc2d3-100e-4452-8cd8-63c6b35c0f1a', '8b4708e5-954b-4baf-b809-1d946d30abf2'],
            10: ['59acab93-7542-45d3-81ba-e80c06103941', '48da16da-28cd-446e-b6d8-f2b98775df91']
        }

        for (var level in KMLevels) {
            for (var srIndex = 0; srIndex < KMLevels[level].length; srIndex++) {
                var sr = KMLevels[level][srIndex]
                var obj = {
                    "sr": sr,
                    "level": parseInt(level)
                };
                // KnowledgeMapsLevelsData.insert(obj);
                KnowledgeMapsLevelsJSON[sr] = parseInt(level);
            }
        }
    }

    insertIntoKMLevels();



}

if (Meteor.isServer) {

    Meteor.methods({
        "callTemp": function() {
            console.log('in here');
            getStudentLessonScores("server");
        }
    })
}





function displayPlotBox(base) {
    console.log('in function displayPlotBox');
    classWiseScores = initClassWiseScores(base);
    plotBoxSvg(classWiseScores);
}

initClassWiseScores = function(base) {
    console.log('in function initClassWiseScores');
    // it accepts base which indicates what is the base for finding, aggregating the students scores

    data = filterStudents(base);
    // console.log('data ', data);
    classifiedStudents = getScores(data, base);
    // console.log('classifiedStudents ', classifiedStudents);

    classWiseScores = getClassWiseScores(classifiedStudents);
    // console.log('classWiseScores ', classWiseScores);

    return classWiseScores;
}


plotBoxSvg = function(classWiseScores) {
    console.log('in function plotBoxSvg');
    // this will plot the subject. units, topics, lessons entities similar to bar chart
    // this accepts classWiseScores, and places the d3 plot on the boxPlotDiv div
    d3.select("#boxPlotDiv").selectAll("*").remove();

    console.log('in plotBoxes');

    var margin = {
            top: 20,
            right: 120,
            bottom: 20,
            left: 120
        },
        // width = (0.75 * window.innerWidth);
        width = (window.innerWidth);
    height = ((window.innerHeight) - margin.top - margin.bottom);

    var svg = d3.select("#boxPlotDiv")
        .append("svg")
        .attr("width", width)
        .attr("height", height);

    svgBox = svg;

    var backButton = svg
        .append("text")
        .attr("x", 20)
        .attr("y", 20)
        .attr("dy", ".35em")
        .attr("font-family", "sans-serif")
        .attr("font-size", "30px")
        .attr("fill", "red")
        .attr("class", "backButton");

    baseHistory.push(base);

    if (base["compare"] != "units") {
        backButton.text("<");
        backButton.on("mousedown", function() {
            Session.set("selectedStudent", '');
            if (base["compare"] == "lessons") {
                Session.set('selectedTopic', '');
                Session.set("selectedLesson", '');
                displaySelection();
            }
            if (base["compare"] == "topics") {
                Session.set('selectedUnit', '');
                Session.set('selectedTopic', '');
                Session.set("selectedLesson", '');
                displaySelection();
            }
            baseHistory.pop();
            base = baseHistory.pop();
            displayPlotBox(base);
        });
    }

    var boxPlotDivHeading = svg
        .append("text")
        .attr("x", 250)
        .attr("y", 20)
        .attr("dy", ".35em")
        .attr("font-family", "sans-serif")
        .attr("font-size", "50px")
        .attr("fill", "red");

    if (base["compare"] == "units") {
        boxPlotDivHeading.text("Select unit");
    } else if (base["compare"] == "topics") {
        Session.set('selectedUnit', Object.keys(base["subjects"]["English"]["units"])[0]);
        displaySelection();
        boxPlotDivHeading.text("Select Topic");
    } else if (base["compare"] == "lessons") {
        Session.set('selectedTopic', Object.keys(base["subjects"]["English"]["units"][Session.get('selectedUnit')]["topics"])[0]);
        displaySelection();
        boxPlotDivHeading.text("Select Lesson");
    }

    var classRangeMinMax = {
        "min": classWiseScores[Object.keys(classWiseScores)[0]].range,
        "max": classWiseScores[Object.keys(classWiseScores)[0]].range
    };

    for (var oneClass in classWiseScores) {
        if (classWiseScores[oneClass].range < classRangeMinMax.min) {
            classRangeMinMax.min = classWiseScores[oneClass].range;
        }
        if (classWiseScores[oneClass].range > classRangeMinMax.max) {
            classRangeMinMax.max = classWiseScores[oneClass].range;
        }
    }


    var allNodeRects = [];
    var previousWidthEnd = null;
    var nodeBars = {};

    for (var oneClass in classWiseScores) {
        if (classWiseScores[oneClass].range == 0) {
            continue;
        }
        var nodeRect = {};
        // nodeRect.height = (0.4 * height) * (classWiseScores[oneClass].range / classRangeMinMax.max);
        nodeRect.height = (0.4 * height);
        nodeRect.width = 20;
        if (previousWidthEnd != null) {
            nodeRect.x = previousWidthEnd + 20;
        } else {
            nodeRect.x = 200;
        }

        if (typeof(classWiseScores[oneClass].sr) != "undefined") {
            nodeRect.sr = classWiseScores[oneClass].sr;
        }

        previousWidthEnd = nodeRect.x + nodeRect.width;
        nodeRect.y = 100;
        nodeRect.name = oneClass;
        allNodeRects.push(nodeRect);
        nodeBars[oneClass] = nodeRect;
    }

    createBar(allNodeRects, svg);

    allNodeCircles = {};

    for (var oneClass in classWiseScores) {
        var classNodeCircles = [];
        for (var scoreIndex = 0; scoreIndex < classWiseScores[oneClass]["scores"].length; scoreIndex++) {
            var nodeCircle = {};
            nodeCircle.cx = nodeBars[oneClass].x + nodeBars[oneClass].width / 2;
            // nodeCircle.cy = nodeBars[oneClass].y + (classWiseScores[oneClass]["scores"][scoreIndex]["score"] / classWiseScores[oneClass].range) * nodeBars[oneClass].height;
            nodeCircle.cy = nodeBars[oneClass].y + ((classWiseScores[oneClass]["scores"][scoreIndex]["score"] / 100) * nodeBars[oneClass].height);
            nodeCircle.r = 1;
            nodeCircle.name = classWiseScores[oneClass]["scores"][scoreIndex]["name"];
            nodeCircle.score = classWiseScores[oneClass]["scores"][scoreIndex]["score"];
            classNodeCircles.push(nodeCircle);
        }
        allNodeCircles[oneClass] = classNodeCircles;
    }

    createCircles(allNodeCircles, svg);

}

function createCircles(allNodeCircles, svg) {
    console.log('in function createCircles');
    // this will create the circles placed on the bar plot indicating the student ranking

    for (var oneClass in allNodeCircles) {
        var classNodeCircles = allNodeCircles[oneClass];

        var circles = svg.selectAll("circles")
            .data(classNodeCircles)
            .enter()
            .append("circle")
            .attr("cx", function(d) {
                return d.cx
            })
            .attr("cy", function(d) {
                return d.cy
            })
            .attr("r", function(d) {
                return d.r
            })
            .attr("fill", "black")
            .attr('name', function(d) {
                return d.name
            })
            .on('mouseover', function(d) {
                d3.select(this).transition()
                    .duration(250)
                    .attr('r', (d.r * 2))
            })
            .on('mouseout', function(d) {
                d3.select(this).transition()
                    .duration(250)
                    .attr('r', d.r)
            })
            .on('mousedown', function(d) {
                Session.set('selectedStudent', d.name);
                performanceLine();
            })
            // .attr("id", function(d){
            //     return d.name.replace(" ", "");
            // })
            .append("svg:title")
            .text(function(d) {
                var scoreText = ", ".concat(String(d.score))
                return d.name.concat(scoreText);
            });
    }

}

performanceLine = function() {
    console.log('in function performanceLine');
    if (typeof(allNodeCircles) != "undefined") {
        pointsArray = [];
        for (var oneClass in allNodeCircles) {
            var point = null;
            for (var i = 0; i < allNodeCircles[oneClass].length; i++) {
                if (allNodeCircles[oneClass][i]["name"] == Session.get('selectedStudent')) {
                    pointsArray.push({
                        "x": allNodeCircles[oneClass][i]["cx"],
                        "y": allNodeCircles[oneClass][i]["cy"]
                    });
                    break;
                }
            }
        }

        svgBox.selectAll("line").remove();
        for (var i = 0; i < pointsArray.length - 1; i++) {
            svgBox.append("line")
                .attr("x1", pointsArray[i]["x"])
                .attr("y1", pointsArray[i]["y"])
                .attr("x2", pointsArray[i + 1]["x"])
                .attr("y2", pointsArray[i + 1]["y"])
                .attr("stroke-width", 2)
                .attr("stroke", "blue")
        }

    }
}






getChildren = function(nodeData, gatheredNodeNumbers, gatheredNodeDict, classWiseScores, noColorRequired) {
    console.log('in function getChildren');

    var children = [];
    if (typeof(nodeData.parent) != "undefined") {
        for (var j = 0; j < nodeData.parent.length; j++) {
            var child = {};
            child.sr = nodeData.parent[j];
            child.parent = nodeData.sr;
            var childData = KnowledgeMapsData.findOne({
                "sr": (child.sr)
            });

            if (childData == undefined) {
                // console.log('no map found with sr ', nodeSr);
                continue;
            }
            child.name = childData.name;

            if (gatheredNodeNumbers.indexOf((child.sr)) != -1) {
                // console.log('here', child.sr);
                continue;
            }
            gatheredNodeNumbers.push((child.sr));
            gatheredNodeDict[(child.sr)] = { "level": gatheredNodeDict[String((child.parent))]["level"] + 1 };
            gatheredNodeDict[(child.sr)]["name"] = child.name;

            if (typeof(noColorRequired) == "undefined") {
                child.color = getRecPlaylist((child.sr), classWiseScores).color;
                gatheredNodeDict[(child.sr)]["color"] = child.color;
            }

            var getChildrenOutput = getChildren(childData, gatheredNodeNumbers, gatheredNodeDict, classWiseScores, noColorRequired);

            child.children = getChildrenOutput[0];
            gatheredNodeNumbers = getChildrenOutput[1];
            gatheredNodeDict = getChildrenOutput[2];

            children.push(child);
        }
    }
    return [children, gatheredNodeNumbers, gatheredNodeDict];
}

genTree = function(nodeSr, classWiseScores, noColorRequired) {
    console.log('in function genTree');

    var node = {};
    node.sr = nodeSr;
    node.parent = null;

    var nodeData = KnowledgeMapsData.findOne({
        "sr": (node.sr)
    });
    if (nodeData == undefined) {
        // console.log('no map found with sr ', nodeSr);
        return null;
    }
    node.name = nodeData.name;

    var gatheredNodeNumbers = [(node.sr)];
    var gatheredNodeDict = {};
    gatheredNodeDict[(node.sr)] = { "level": 0 };
    gatheredNodeDict[(node.sr)]["name"] = node.name;

    if (typeof(noColorRequired) == "undefined") {
        node.color = getRecPlaylist((node.sr), classWiseScores).color;
        gatheredNodeDict[(node.sr)]["color"] = node.color;
    }

    var getChildrenOutput = getChildren(nodeData, gatheredNodeNumbers, gatheredNodeDict, classWiseScores, noColorRequired);

    node.children = getChildrenOutput[0];
    gatheredNodeNumbers = getChildrenOutput[1];
    gatheredNodeDict = getChildrenOutput[2];

    // console.log('gatheredNodeNumbers', gatheredNodeNumbers);
    // console.log('gatheredNodeDict', gatheredNodeDict);

    return [node, gatheredNodeDict];

    // if (typeof(noColorRequired) == "undefined") {
    //     return tree;
    // } else {
    //     return [tree, gatheredNodeNumbers];
    // }
}

generateTree = function(root, classWiseScores, noColorRequired) {
    console.log('in function generateTree');
    // this will generate the KnowledgeMap tree for a particular lesson given by root and the classWiseScores will provide the data to traverse
    // console.log("inside generate tree " + root)

    // temp = lookUpTest(root.toString());
    temp = KnowledgeMapsData.find({
        "sr": (root)
    }).fetch();
    if (temp.length > 0) {
        temp = temp[0];
    } else {
        // console.log('no map found with sr ', root);
        return 0;
    }

    // console.log("temp parent " + temp.parent);
    var tree = [];
    var rootNode = {};
    rootNode.name = temp.name;
    rootNode.sr = temp.sr;
    rootNode.parent = null;
    rootNode.children = [];
    // rootNode.parents = temp.parents;
    gatheredNodeNumbers = [(temp.sr)];

    if (typeof(noColorRequired) == "undefined") {
        rootNode.color = getRecPlaylist((root), classWiseScores).color;
    }

    if (typeof(temp.parent) != "undefined") {
        for (var j = 0; j < temp.parent.length; j++) {
            // insideTemp = lookUpTest(temp.parent[j]);
            insideTemp = KnowledgeMapsData.find({
                "sr": (temp.parent[j])
            }).fetch();
            if (insideTemp.length > 0) {
                insideTemp = insideTemp[0];
            } else {
                // console.log('no map found with sr in for loop ', temp.parent[j]);
                continue;
            }

            gatheredNodeNumbers.push(temp.parent[j]);
            var children = {};
            children.parent = temp.parent[j];
            children.name = insideTemp.name;
            children.sr = insideTemp.sr;

            if (typeof(noColorRequired) == "undefined") {
                children.color = getRecPlaylist((temp.parent[j]), classWiseScores).color;
            }

            children.children = appendChildren(temp.parent[j], classWiseScores);
            rootNode.children.push(children);
        }
    }
    tree.push(rootNode);
    // console.log('tree level ', tree);

    if (typeof(noColorRequired) == "undefined") {
        return tree;
    } else {
        return [tree, gatheredNodeNumbers];
    }
}

function appendChildren(parent, classWiseScores) {
    console.log('in function appendChildren');

    // this will traverse through the whole tree of a root lesson, and find all the parents

    var root = [];
    // insideParent = lookUpTest(parent.toString());
    insideParent = KnowledgeMapsData.find({
        "sr": (parent)
    }).fetch();
    if (insideParent.length > 0) {
        insideParent = insideParent[0];
    } else {
        // console.log('no map found with sr in appendChildren 1 ', parent);
        return 0;
    }
    // console.log("inside insideParent " + insideParent)
    if (typeof(insideParent.parent) != "undefined") {
        for (var i = 0; i < insideParent.parent.length; i++) {
            if (gatheredNodeNumbers.indexOf((insideParent.parent[i])) > -1) {
                continue;
            }
            var child = {};
            // insideChild = lookUpTest(insideParent.parent[i]);
            insideChild = KnowledgeMapsData.find({
                "sr": (insideParent.parent[i])
            }).fetch();
            if (insideChild.length > 0) {
                insideChild = insideChild[0];
            } else {
                // console.log('no map found with sr in appendChildren 2 ', insideParent.parent[i]);
                return 0;
            }
            // child.children = [];
            if (typeof(noColorRequired) == "undefined") {
                child.color = getRecPlaylist((insideChild.sr), classWiseScores).color;
            }
            gatheredNodeNumbers.push((insideChild.sr));
            child.parent = insideParent.name;
            child.name = insideChild.name;
            child.sr = insideChild.sr;
            // child.children = appendChildren(insideChild.sr, classWiseScores);
            root.push(child);
        }
    }

    return root;
}

getRecPlaylist = function(n, classWiseScores) {
    console.log('in function getRecPlaylist');

    // this will determine the color of a node depending on the score of the student in that lesson node

    // console.log('in getRecPlaylist', n);

    if (typeof(classWiseScores) == "undefined") {
        console.log('classWiseScores empty');
        return {
            "color": "blue"
        };
    }

    // console.log("inside ", lessonWiseScores2[n], " ", n);
    var students = [];

    // var threshold;
    var studentAverage = 0;
    var color;
    var scores;

    var nLesson = KnowledgeMapsData.find({
        "sr": n
    }).fetch();
    nClassWiseScores = [];

    if (nLesson.length > 0) {
        nLesson = nLesson[0];

        var unit = nLesson["unit"];
        var subject = nLesson["subject"];
        var topic = nLesson["topic"];

        nBase = {
            "grade": nLesson["grade"],
            "compare": "lessons",
            "subjects": {}
        };
        nBase["subjects"][subject] = {
            "units": {}
        };
        nBase["subjects"][subject]["units"][unit] = {
            "topics": {}
        };
        nBase["subjects"][subject]["units"][unit]["topics"][topic] = {};

        // console.log('finding nClassWiseScores for n ', n, JSON.stringify(nBase));
        nClassWiseScores = initClassWiseScores(nBase);
        // console.log('nClassWiseScores ', n , nClassWiseScores);

    } else {
        // console.log('n not found in KnowledgeMapsData ', n);
        return {
            "color": "blue"
        };
    }

    for (var oneLesson in nClassWiseScores) {
        if (n == (nClassWiseScores[oneLesson]["sr"])) {
            scores = nClassWiseScores[oneLesson]["scores"];
            break;
        }
    }

    if (typeof(scores) == "undefined") {
        // console.log('scores in getRecPlaylist empty');
        return {
            "color": "blue"
        };
    }

    var sum = 0;
    var selectedStudentScore;

    for (var j = 0; j < scores.length; j++) {
        // console.log("adding to average ", sum);

        if (Session.get('selectedStudent') == scores[j].name) {
            selectedStudentScore = scores[j].score;
            continue;
        }
        sum += scores[j].score;
    }

    if (typeof(selectedStudentScore) == "undefined" || sum == 0) {
        // console.log('selectedStudentScore in getRecPlaylist empty');
        return {
            "color": "blue"
        };
    }

    studentAverage = sum / scores.length;

    // console.log("average ", studentAverage);

    if (selectedStudentScore > studentAverage) {
        color = "#00ff00";
    } else {
        color = "red";
    }


    // console.log('myColor ', color);

    return {
        "studentAverage": studentAverage,
        "color": color
    };
}

rankPlaylist = function(playlistUnordered, playlistSrName, recommendationsOnly) {
    console.log('in function rankPlaylist');

    // this will rank all the prerequisites according to the KnowledgeMapsLevels in sucha way that the nodes which are of level smaller that the others gets added to the playlist before

    var rankedPlaylistLevels = {};

    for (var level in playlistUnordered) {
        rankedPlaylistLevels[level] = {};
        for (var srIndex = 0; srIndex < playlistUnordered[level].length; srIndex++) {
            rankedPlaylistLevels[level][(playlistUnordered[level][srIndex])] = KnowledgeMapsLevelsJSON[playlistUnordered[level][srIndex]];
        }
    }

    var descendingLevel = Object.keys(rankedPlaylistLevels).sort().reverse();


    var rankedPlaylist = [];

    for (var i = 0; i < descendingLevel.length; i++) {
        var rankedPlaylistLevel = rankedPlaylistLevels[descendingLevel[i]];
        var sortedPlaylistLevel = Object.keys(rankedPlaylistLevel).sort(function(a, b) {
            return rankedPlaylistLevel[a] - rankedPlaylistLevel[b]
        });
        rankedPlaylist = rankedPlaylist.concat(sortedPlaylistLevel);
    }

    // for (var i = 0; i < rankedPlaylist.length; i++) {
    //     rankedPlaylist[i] = (rankedPlaylist[i]);
    // }

    // console.log('rankedPlaylist ', rankedPlaylist);

    if (typeof(recommendationsOnly) != "undefined") {
        // var recommendations = []
        // for (var playlistIndex = 0; playlistIndex < rankedPlaylist.length; playlistIndex++) {
        //     recommendations.push(playlistSrName[rankedPlaylist[playlistIndex]]);
        // }
        // return recommendations;
        return rankedPlaylist;
    }


    var ul = document.getElementById("playlist");
    ul.innerHTML = '<center><h5 style="color:#26a69a"><u>Playlist</u></h5></center>';

    // for (var playlistIndex = 0; playlistIndex < rankedPlaylist.length; playlistIndex++) {
    //     var childP = document.createElement("p");
    //     childP.innerHTML = rankedPlaylist[playlistIndex];
    //     ul.appendChild(childP);
    // }

    for (var playlistIndex = 0; playlistIndex < rankedPlaylist.length; playlistIndex++) {
        var childP = document.createElement("a");
        childP.innerHTML = playlistSrName[rankedPlaylist[playlistIndex]];
        childP.className = "collection-item";
        ul.appendChild(childP);
    }

}

makeTree = function(node, classWiseScores, appendAll, recommendationsOnly) {
    console.log('in function makeTree');
    console.log('from makeTree', node, classWiseScores, appendAll, recommendationsOnly);

    // tempTree = generateTree(node, classWiseScores);
    var genTreeOutput = genTree(node, classWiseScores);
    var tempTree = genTreeOutput[0];
    var gatheredNodeDict = genTreeOutput[1];



    if (typeof(appendAll) == "undefined") {

        var playlistUnordered = {};
        var playlistSrName = {};

        for (var sr in gatheredNodeDict) {
            if (playlistUnordered[gatheredNodeDict[sr]["level"]] == undefined) {
                if (gatheredNodeDict[sr]["color"] != "#00ff00") {
                    playlistUnordered[gatheredNodeDict[sr]["level"]] = [sr];
                    playlistSrName[sr] = gatheredNodeDict[sr]["name"];
                }
            } else {
                if (gatheredNodeDict[sr]["color"] != "#00ff00") {
                    playlistUnordered[gatheredNodeDict[sr]["level"]].push(sr);
                    playlistSrName[sr] = gatheredNodeDict[sr]["name"];
                }
            }
        }

        var recommendations = rankPlaylist(playlistUnordered, playlistSrName, recommendationsOnly);

        if (typeof(recommendationsOnly) != "undefined") {
            return recommendations;
        }
    }


    var treeData = tempTree;
    // console.log()
    // ************** Generate the tree diagram  *****************
    var margin = {
            top: 0,
            right: 0,
            bottom: 120,
            left: 220
        },
        width = 2 * (window.innerWidth) - margin.left - margin.right;
    height = (window.innerHeight) - margin.top - margin.bottom;

    var i = 0,
        duration = 750,
        root;

    var tree = d3.layout.tree()
        .size([height, width]);

    var diagonal = d3.svg.diagonal()
        .projection(function(d) {
            return [d.y, d.x];
        });

    // var svg = d3.select("body").append("svg")
    if (typeof(appendAll) == "undefined") {
        d3.select("#boxPlotDiv").selectAll("*").remove();
    }

    var svg = d3.select("#boxPlotDiv").append("svg")
        .attr("width", width + margin.right + margin.left)
        .attr("height", height + margin.top + margin.bottom)
        .append("g")
        .attr("transform", "translate(" + margin.left + "," + margin.top + ")");



    var backButton = svg
        .append("text")
        .attr("x", 20)
        .attr("y", 20)
        .attr("dy", ".35em")
        .attr("font-family", "sans-serif")
        .attr("font-size", "30px")
        .attr("fill", "red")
        .attr("class", "backButton")
        .text("<");

    backButton.on("mousedown", function() {
        Session.set("selectedLesson", "");
        Session.set("selectedStudent", "");
        document.getElementById("playlist").innerHTML = "";
        base = baseHistory.pop();
        displayPlotBox(base);
    });

    var boxPlotDivHeading = svg
        .append("text")
        .attr("x", 200)
        .attr("y", 20)
        .attr("dy", ".35em")
        .attr("font-family", "sans-serif")
        .attr("font-size", "20px")
        .attr("fill", "red")
        .text("Lesson Prerequisites - Tree Graph");

    if (Session.get('selectedStudent') != "") {
        var str = "Lesson Prerequisites - Tree \n Graph : " + Session.get('selectedStudent');
        boxPlotDivHeading.text(str);
    }


    // console.log('final treeData ', treeData);
    root = treeData;
    root.x0 = height / 2;
    root.y0 = 0;

    update(root);

    d3.select(self.frameElement).style("height", "500px");

    function update(source) {

        // Compute the new tree layout.
        var nodes = tree.nodes(root).reverse(),
            links = tree.links(nodes);

        // console.log('final nodes ', nodes);
        // console.log('final links ', links);

        // Normalize for fixed-depth.
        nodes.forEach(function(d) {
            d.y = d.depth * 180;
        });

        // Update the nodes…
        var node = svg.selectAll("g.node")
            .data(nodes, function(d) {
                return d.id || (d.id = ++i);
            });

        // Enter any new nodes at the parent's previous position.
        var nodeEnter = node.enter().append("g")
            .attr("class", "node")
            .attr("transform", function(d) {
                var h = height - d.y;
                return "translate(" + source.y0 + "," + source.x0 + ")";
                // return "translate(" + h + "," + d.x + ")";
            })
            .on("click", click);

        nodeEnter.append("circle")
            .attr("r", 1e-6)
            .style("fill", function(d) {
                return d._children ? "lightsteelblue" : "#fff";
            });

        nodeEnter.append("text")
            .attr("x", function(d) {
                return d.children || d._children ? -13 : 13;
            })
            .attr("dy", ".35em")
            .attr("text-anchor", function(d) {
                return d.children || d._children ? "end" : "start";
            })
            .text(function(d) {
                return d.name;
            })
            .style("fill-opacity", 1e-6);

        // Transition nodes to their new position.
        var nodeUpdate = node.transition()
            .duration(duration)
            .attr("transform", function(d) {
                return "translate(" + d.y + "," + d.x + ")";
                // var h = height - d.y;
                // return "translate(" + d.x + "," + h + ")"; 
            });

        nodeUpdate.select("circle")
            .attr("r", 10)
            .style("fill", function(d) {
                // return d._children ? "lightsteelblue" : "#fff";
                // console.log('color *********** ', d.color);
                // if(Math.random()>0.4){
                //     return "#00ff00";
                // }
                // return "red";
                return d.color;
            });

        nodeUpdate.select("text")
            .style("fill-opacity", 1);

        // Transition exiting nodes to the parent's new position.
        var nodeExit = node.exit().transition()
            .duration(duration)
            .attr("transform", function(d) {
                return "translate(" + source.y + "," + source.x + ")";
                // var h = height - source.y;
                // return "translate(" + source.x + "," + h + ")"; 
            })
            .remove();

        nodeExit.select("circle")
            .attr("r", 1e-6);

        nodeExit.select("text")
            .style("fill-opacity", 1e-6);

        // Update the links…
        var link = svg.selectAll("path.link")
            .data(links, function(d) {
                return d.target.id;
            })

        // Enter any new links at the parent's previous position.
        link.enter().insert("path", "g")
            .attr("class", "link")
            // .attr("class",function(){
            //     if(Math.random()>0.4){
            //         return "link";
            //     }else{
            //         return "link_dashed";
            //     }
            // })
            .style("stroke", function(d) {
                // if(Math.random()>0.4){
                //     return "#00ff00";
                // }else{
                //     return "red";
                // }
                if (d.target.color != "red" && d.target.color != "blue") {
                    return "#00ff00";
                } else if (d.target.color == "blue") {
                    return "blue";
                } else {
                    return "red";
                }
            })
            .style("stroke-width", function(d) {
                // if(Math.random()>0.4){
                //     return 5;
                // }else{
                //     return 1.5;
                // }
                if (d.target.color != "red" && d.target.color != "blue") {
                    return 5;
                } else if (d.target.color == "blue") {
                    return "2";
                } else {
                    return 1.5;
                }
            })
            .style("stroke-dasharray", function(d) {
                // if(Math.random()>0.4){
                //     return "3,0";
                // }else{
                //     return "3,5";
                // }
                if (d.target.color != "red" && d.target.color != "blue") {
                    return "3,0";
                } else if (d.target.color == "blue") {
                    return "3,0";
                } else {
                    return "3,5";
                }
            })
            .attr("d", function(d) {
                var o = {
                    x: source.x0,
                    y: source.y0
                };
                return diagonal({
                    source: o,
                    target: o
                });
            });

        // Transition links to their new position.
        link.transition()
            .duration(duration)
            .attr("d", diagonal);

        // Transition exiting nodes to the parent's new position.
        link.exit().transition()
            .duration(duration)
            .attr("d", function(d) {
                var o = {
                    x: source.x,
                    y: source.y
                };
                return diagonal({
                    source: o,
                    target: o
                });
            })
            .remove();

        // Stash the old positions for transition.
        nodes.forEach(function(d) {
            d.x0 = d.x;
            d.y0 = d.y;
        });
    }

    // Toggle children on click.
    function click(d) {
        if (d.children) {
            d._children = d.children;
            d.children = null;
        } else {
            d.children = d._children;
            d._children = null;
        }
        update(d);
    }
}





function createBar(allNodeRects, svg) {
    console.log('in function createBar');
    var rect = svg.selectAll("rect")
        .data(allNodeRects)
        .enter()
        .append("rect")
        .attr("x", function(d) {
            return d.x;
        })
        .attr("y", function(d) {
            return d.y;
        })
        .attr("width", function(d) {
            return d.width;
        })
        .attr("height", function(d) {
            return d.height;
        })
        .attr("name", function(d) {
            return d.name;
        })
        .attr("fill", "red")
        .style('opacity', 0.7)
        .on('mouseover', function(d) {
            d3.select(this).transition()
                .duration(250)
                .style('opacity', 1)
        })
        .on('mouseout', function(d) {
            d3.select(this).transition()
                .duration(250)
                .style('opacity', 0.7)
        })
        .on('mousedown', function(d) {
            console.log('here clicled node ******* ', d.name);
            var compareType = base["compare"];

            if (compareType == "units") {
                base = {
                    "grade": parseInt(Session.get("grade")),
                    "compare": "topics",
                    "subjects": {}
                };
                base["subjects"][Session.get("subject")] = {
                    "units": {}
                };
                base["subjects"][Session.get("subject")]["units"][d.name] = {};

                displayPlotBox(base);
            } else if (compareType == "topics") {
                var unit = Object.keys(base["subjects"][Session.get("subject")]["units"])[0];
                base = {
                    "grade": parseInt(Session.get("grade")),
                    "compare": "lessons",
                    "subjects": {}
                };
                base["subjects"][Session.get("subject")] = {
                    "units": {}
                };
                base["subjects"][Session.get("subject")]["units"][unit] = {
                    "topics": {}
                };
                base["subjects"][Session.get("subject")]["units"][unit]["topics"][d.name] = {};

                displayPlotBox(base);
            } else if (compareType == "lessons") {
                Session.set('selectedLesson', d.sr);
                var sr = d.sr;
                makeTree(sr);
            }

        })
        .append("svg:title")
        .text(function(d) {
            return d.name;
        });
}

getClassMinMaxMean = function(classWiseScores) {
    console.log('in function getClassMinMaxMean');
    for (var oneClass in classWiseScores) {
        var meanScore = 0;
        var minScore = classWiseScores[oneClass]["scores"][0]["score"];
        var maxScore = classWiseScores[oneClass]["scores"][0]["score"];

        for (var scoreIndex = 0; scoreIndex < classWiseScores[oneClass]["scores"].length; scoreIndex++) {
            meanScore += classWiseScores[oneClass]["scores"][scoreIndex]["score"] / classWiseScores[oneClass]["scores"].length;
            if (classWiseScores[oneClass]["scores"][scoreIndex]["score"] < minScore) {
                minScore = classWiseScores[oneClass]["scores"][scoreIndex]["score"];
            }
            if (classWiseScores[oneClass]["scores"][scoreIndex]["score"] > maxScore) {
                maxScore = classWiseScores[oneClass]["scores"][scoreIndex]["score"];
            }
        }

        classWiseScores[oneClass]["mean"] = meanScore;
        classWiseScores[oneClass]["max"] = maxScore;
        classWiseScores[oneClass]["min"] = minScore;
        classWiseScores[oneClass]["range"] = maxScore - minScore;
    }

    return classWiseScores;
}

getClassWiseScores = function(students) {
    console.log('in function getClassWiseScores');

    var classWiseScores = {};

    for (var studentIndex = 0; studentIndex < students.length; studentIndex++) {
        for (var oneClass in students[studentIndex]["scores"]) {
            if (classWiseScores.hasOwnProperty(oneClass)) {

                if (typeof(students[studentIndex]["scores"][oneClass]) != "object") {
                    classWiseScores[oneClass]["scores"].push({
                        "score": students[studentIndex]["scores"][oneClass],
                        "name": students[studentIndex]["name"]
                    });
                } else {
                    classWiseScores[oneClass]["scores"].push({
                        "score": students[studentIndex]["scores"][oneClass]["score"],
                        "name": students[studentIndex]["name"]
                    });
                    classWiseScores[oneClass]["sr"] = students[studentIndex]["scores"][oneClass]["sr"];
                }
            } else {
                classWiseScores[oneClass] = {
                    "scores": []
                };

                if (typeof(students[studentIndex]["scores"][oneClass]) != "object") {
                    classWiseScores[oneClass]["scores"].push({
                        "score": students[studentIndex]["scores"][oneClass],
                        "name": students[studentIndex]["name"]
                    });
                } else {
                    classWiseScores[oneClass]["scores"].push({
                        "score": students[studentIndex]["scores"][oneClass]["score"],
                        "name": students[studentIndex]["name"]
                    });
                    classWiseScores[oneClass]["sr"] = students[studentIndex]["scores"][oneClass]["sr"];
                }
            }
        }
    }

    classWiseScores = getClassMinMaxMean(classWiseScores);

    return classWiseScores;
}

filterStudents = function(base) {
    console.log('in function filterStudents');
    var filterFind = [];

    for (var subject in base["subjects"]) {
        var findKey = "subjects." + String(subject);
        // var filterKey = "subjects." + String(base["subjects"]);
        if (base["subjects"][subject].hasOwnProperty("units")) {
            for (var unit in base["subjects"][subject]["units"]) {
                findKey = "subjects." + String(subject) + ".units." + String(unit);
                if (base["subjects"][subject]["units"][unit].hasOwnProperty("topics")) {
                    for (var topic in base["subjects"][subject]["units"][unit]["topics"]) {
                        findKey = "subjects." + String(subject) + ".units." + String(unit) + ".topics." + String(topic);
                        filterFind.push(findKey);
                    }
                } else {
                    filterFind.push(findKey);
                }
            }
        } else {
            filterFind.push(findKey);
        }
    }
    // console.log('filterFind ', filterFind);

    var queryFind = {
        "grade": base["grade"],
        $or: []
    };
    // console.log('keys ', Object.keys(queryFind));
    var queryFilter = {
        "fields": {
            "name": 1
        }
    };
    for (var i = 0; i < filterFind.length; i++) {
        var eachQueryFind = {};
        eachQueryFind[filterFind[i]] = {
            $exists: true
        };
        queryFind["$or"].push(eachQueryFind);

        queryFilter["fields"][filterFind[i]] = 1;
    }

    console.log('queryFind ', JSON.stringify(queryFind));
    console.log('queryFilter', JSON.stringify(queryFilter));

    var filteredData = [];

    StudentData.find(queryFind, queryFilter).forEach(function(doc) {
        filteredData.push(doc);
    });

    // console.log('here 3 ', filteredData);

    return filteredData;
}

getScores = function(data, base) {
    console.log('in function getScores');

    var classifiedStudents = [];

    for (var dataIndex = 0; dataIndex < data.length; dataIndex++) {
        var scoreCount = {};

        var topicScore = 0;
        var unitScore = 0;
        var subjectScore = 0;

        scoreCount["subjects"] = {};
        var nanSubjectScore = 1;
        for (var subject in data[dataIndex]["subjects"]) {
            if (data[dataIndex]["subjects"][subject].hasOwnProperty("units")) {
                subjectScore = 0;
                scoreCount["units"] = {};
                var nanUnitScore = 1;
                for (var unit in data[dataIndex]["subjects"][subject]["units"]) {
                    if (data[dataIndex]["subjects"][subject]["units"][unit].hasOwnProperty("topics")) {
                        unitScore = 0;
                        scoreCount["topics"] = {};
                        var nanTopicScore = 1;
                        for (var topic in data[dataIndex]["subjects"][subject]["units"][unit]["topics"]) {
                            if (data[dataIndex]["subjects"][subject]["units"][unit]["topics"][topic].hasOwnProperty("lessons")) {
                                topicScore = 0;
                                scoreCount["lessons"] = {};
                                var nanLessonScore = 1;
                                for (var sr in data[dataIndex]["subjects"][subject]["units"][unit]["topics"][topic]["lessons"]) {
                                    var score = data[dataIndex]["subjects"][subject]["units"][unit]["topics"][topic]["lessons"][sr]["score"];
                                    if (score != null) {
                                        nanLessonScore = 0;
                                    } else {
                                        continue;
                                    }
                                    scoreCount["lessons"][data[dataIndex]["subjects"][subject]["units"][unit]["topics"][topic]["lessons"][sr]["name"]] = {};
                                    scoreCount["lessons"][data[dataIndex]["subjects"][subject]["units"][unit]["topics"][topic]["lessons"][sr]["name"]]["score"] = score;
                                    // scoreCount["lessons"][data[dataIndex]["subjects"][subject]["units"][unit]["topics"][topic]["lessons"][sr]["name"]]["sr"] = data[dataIndex]["subjects"][subject]["units"][unit]["topics"][topic]["lessons"][sr]["sr"];
                                    scoreCount["lessons"][data[dataIndex]["subjects"][subject]["units"][unit]["topics"][topic]["lessons"][sr]["name"]]["sr"] = sr;
                                    topicScore += score / Object.keys(data[dataIndex]["subjects"][subject]["units"][unit]["topics"][topic]["lessons"]).length;
                                }

                                if (base["compare"] == "lessons" && nanLessonScore != 1) {
                                    classifiedStudents.push({
                                        "name": data[dataIndex]["name"],
                                        "scores": scoreCount["lessons"]
                                    });
                                }

                                if (nanLessonScore != 1) {
                                    nanTopicScore = 0;
                                    scoreCount["topics"][topic] = topicScore;
                                }
                            }
                        }

                        if (base["compare"] == "topics" && nanTopicScore != 1) {
                            classifiedStudents.push({
                                "name": data[dataIndex]["name"],
                                "scores": scoreCount["topics"]
                            });
                        }

                        if (nanTopicScore != 1) {
                            for (var topic in scoreCount["topics"]) {
                                unitScore += scoreCount["topics"][topic] / Object.keys(scoreCount["topics"]).length;
                            }
                            nanUnitScore = 0;
                            scoreCount["units"][unit] = unitScore;
                        }
                    }
                }

                if (base["compare"] == "units" && nanUnitScore != 1) {
                    classifiedStudents.push({
                        "name": data[dataIndex]["name"],
                        "scores": scoreCount["units"]
                    });
                }

                if (nanUnitScore != 1) {
                    for (var unit in scoreCount["units"]) {
                        subjectScore += scoreCount["units"][unit] / Object.keys(scoreCount["units"]).length;
                    }
                    nanSubjectScore = 0;
                    scoreCount["subjects"][subject] = subjectScore;
                }
            }
        }

        if (base["compare"] == "subjects" && nanSubjectScore != 1) {
            classifiedStudents.push({
                "name": data[dataIndex]["name"],
                "scores": scoreCount["subjects"]
            });
        }

        // console.log('scoreCount ', scoreCount);
    }

    return (classifiedStudents);

}








// mr = db.runCommand({"mapreduce" : "StudentReal","map" : function() {if(typeof(this["subject"]) != "undefined"){for (var key in this["subject"]) { emit(key, null); }}},"reduce" : function(key, stuff) { return null; }, "out": "StudentReal" + "_keys"})
